%YAML 1.1
%TAG !u! tag:unity3d.com,2011:
--- !u!74 &7400000
AnimationClip:
  m_ObjectHideFlags: 0
  m_CorrespondingSourceObject: {fileID: 0}
  m_PrefabInstance: {fileID: 0}
  m_PrefabAsset: {fileID: 0}
  m_Name: Lineal
  serializedVersion: 7
  m_Legacy: 0
  m_Compressed: 0
  m_UseHighQualityCurve: 1
  m_RotationCurves: []
  m_CompressedRotationCurves: []
  m_EulerCurves: []
  m_PositionCurves: []
  m_ScaleCurves: []
  m_FloatCurves: []
  m_PPtrCurves:
  - serializedVersion: 2
    curve:
    - time: 0
      value: {fileID: 21300000, guid: ab7761ecb593fe846bc125eb24dce870, type: 3}
    - time: 1
      value: {fileID: 21300000, guid: ab7761ecb593fe846bc125eb24dce870, type: 3}
    - time: 1.0166667
      value: {fileID: 21300000, guid: ab7761ecb593fe846bc125eb24dce870, type: 3}
    - time: 1.05
      value: {fileID: 21300000, guid: cb3748c4556c41d4197ff30de921c834, type: 3}
    - time: 1.0833334
      value: {fileID: 21300000, guid: ef381a7a93671f546be89a058019e303, type: 3}
    - time: 1.1166667
      value: {fileID: 21300000, guid: ab7761ecb593fe846bc125eb24dce870, type: 3}
    - time: 1.15
      value: {fileID: 21300000, guid: ab7761ecb593fe846bc125eb24dce870, type: 3}
    - time: 1.1833333
      value: {fileID: 21300000, guid: cb3748c4556c41d4197ff30de921c834, type: 3}
    - time: 1.2166667
      value: {fileID: 21300000, guid: ef381a7a93671f546be89a058019e303, type: 3}
    - time: 1.2333333
      value: {fileID: 21300000, guid: ab7761ecb593fe846bc125eb24dce870, type: 3}
    - time: 1.25
      value: {fileID: 21300000, guid: ab7761ecb593fe846bc125eb24dce870, type: 3}
    - time: 1.2833333
      value: {fileID: 21300000, guid: cb3748c4556c41d4197ff30de921c834, type: 3}
    - time: 1.3166667
      value: {fileID: 21300000, guid: ef381a7a93671f546be89a058019e303, type: 3}
    - time: 1.35
      value: {fileID: 21300000, guid: ab7761ecb593fe846bc125eb24dce870, type: 3}
    - time: 1.3833333
      value: {fileID: 21300000, guid: ab7761ecb593fe846bc125eb24dce870, type: 3}
    - time: 1.4166666
      value: {fileID: 21300000, guid: cb3748c4556c41d4197ff30de921c834, type: 3}
    - time: 1.45
      value: {fileID: 21300000, guid: ef381a7a93671f546be89a058019e303, type: 3}
    - time: 1.5
      value: {fileID: 21300000, guid: ab7761ecb593fe846bc125eb24dce870, type: 3}
    - time: 1.8333334
      value: {fileID: 21300000, guid: ab7761ecb593fe846bc125eb24dce870, type: 3}
    attribute: m_Sprite
    path: 
    classID: 212
    script: {fileID: 0}
    flags: 2
  m_SampleRate: 60
  m_WrapMode: 0
  m_Bounds:
    m_Center: {x: 0, y: 0, z: 0}
    m_Extent: {x: 0, y: 0, z: 0}
  m_ClipBindingConstant:
    genericBindings:
    - serializedVersion: 2
      path: 0
      attribute: 0
      script: {fileID: 0}
      typeID: 212
      customType: 23
      isPPtrCurve: 1
      isIntCurve: 0
      isSerializeReferenceCurve: 0
    pptrCurveMapping:
    - {fileID: 21300000, guid: ab7761ecb593fe846bc125eb24dce870, type: 3}
    - {fileID: 21300000, guid: ab7761ecb593fe846bc125eb24dce870, type: 3}
    - {fileID: 21300000, guid: ab7761ecb593fe846bc125eb24dce870, type: 3}
    - {fileID: 21300000, guid: cb3748c4556c41d4197ff30de921c834, type: 3}
    - {fileID: 21300000, guid: ef381a7a93671f546be89a058019e303, type: 3}
    - {fileID: 21300000, guid: ab7761ecb593fe846bc125eb24dce870, type: 3}
    - {fileID: 21300000, guid: ab7761ecb593fe846bc125eb24dce870, type: 3}
    - {fileID: 21300000, guid: cb3748c4556c41d4197ff30de921c834, type: 3}
    - {fileID: 21300000, guid: ef381a7a93671f546be89a058019e303, type: 3}
    - {fileID: 21300000, guid: ab7761ecb593fe846bc125eb24dce870, type: 3}
    - {fileID: 21300000, guid: ab7761ecb593fe846bc125eb24dce870, type: 3}
    - {fileID: 21300000, guid: cb3748c4556c41d4197ff30de921c834, type: 3}
    - {fileID: 21300000, guid: ef381a7a93671f546be89a058019e303, type: 3}
    - {fileID: 21300000, guid: ab7761ecb593fe846bc125eb24dce870, type: 3}
    - {fileID: 21300000, guid: ab7761ecb593fe846bc125eb24dce870, type: 3}
    - {fileID: 21300000, guid: cb3748c4556c41d4197ff30de921c834, type: 3}
    - {fileID: 21300000, guid: ef381a7a93671f546be89a058019e303, type: 3}
    - {fileID: 21300000, guid: ab7761ecb593fe846bc125eb24dce870, type: 3}
    - {fileID: 21300000, guid: ab7761ecb593fe846bc125eb24dce870, type: 3}
  m_AnimationClipSettings:
    serializedVersion: 2
    m_AdditiveReferencePoseClip: {fileID: 0}
    m_AdditiveReferencePoseTime: 0
    m_StartTime: 0
    m_StopTime: 1.85
    m_OrientationOffsetY: 0
    m_Level: 0
    m_CycleOffset: 0
    m_HasAdditiveReferencePose: 0
    m_LoopTime: 1
    m_LoopBlend: 0
    m_LoopBlendOrientation: 0
    m_LoopBlendPositionY: 0
    m_LoopBlendPositionXZ: 0
    m_KeepOriginalOrientation: 0
    m_KeepOriginalPositionY: 1
    m_KeepOriginalPositionXZ: 0
    m_HeightFromFeet: 0
    m_Mirror: 0
  m_EditorCurves: []
  m_EulerEditorCurves: []
  m_HasGenericRootTransform: 0
  m_HasMotionFloatCurves: 0
  m_Events: []
